amqp==2.2.2
astroid==1.6.0
backports.functools-lru-cache==1.4
billiard==3.5.0.3
celery==4.1.0
configparser==3.5.0
confusable-homoglyphs==2.0.2
Django==1.11
django-debug-toolbar==1.9.1
enum34==1.1.6
isort==4.2.15
kombu==4.1.0
lazy-object-proxy==1.3.1
mccabe==0.6.1
pylint==1.8.1
pymongo==3.6.0
pytz==2017.3
rope==0.10.7
singledispatch==3.4.0.3
six==1.11.0
sqlparse==0.2.4
vine==1.1.4
wrapt==1.10.11
mongoengine==0.15.0
celery==4.1.0
paho-mqtt==1.3.1
MySQL-python==1.2.5
Pillow==5.0.0
python-memcached==1.59
redis==2.10.6
django-mysql
requests