32,گیلان,376,منجیل
32,گیلان,377,لنگرود
32,گیلان,378,رودسر
32,گیلان,379,طوالش
32,گیلان,380,آستارا
32,گیلان,381,ماسوله
32,گیلان,382,آستانه اشرفیه
32,گیلان,383,رودبار
32,گیلان,384,فومن
32,گیلان,385,صومعه سرا
32,گیلان,386,بندرانزلی
32,گیلان,387,کلاچای
32,گیلان,622,رشت
32,گیلان,649,هشتپر
32,گیلان,650,رضوان شهر
32,گیلان,651,ماسال
32,گیلان,652,شفت
32,گیلان,653,سیاهکل
32,گیلان,654,املش
32,گیلان,715,لاهیجان
32,گیلان,819,اسالم
32,گیلان,820,برهسر
32,گیلان,821,توتکابن
32,گیلان,822,چابکسر
32,گیلان,823,خشک بیجار
32,گیلان,824,لشت نشا
32,گیلان,825,لوشان
32,گیلان,826,کیاشهر
32,گیلان,827,کوچصفهان
32,گیلان,828,خمام
32,گیلان,829,دیلمان
32,گیلان,830,رحیم آباد
32,گیلان,832,سنگر
33,مازندران,388,ساری
33,مازندران,389,آمل
33,مازندران,390,بابل
33,مازندران,391,بابلسر
33,مازندران,392,بهشهر
33,مازندران,393,تنکابن
33,مازندران,394,جویبار
33,مازندران,395,چالوس
33,مازندران,396,رامسر
33,مازندران,397,پل سفيد
33,مازندران,398,قائم شهر
33,مازندران,399,نکاء
33,مازندران,400,نور
33,مازندران,401,بلده
33,مازندران,402,نوشهر
33,مازندران,655,پل سفید
33,مازندران,656,محمودآباد
33,مازندران,657,فریدون کنار
33,مازندران,750,گلوگاه
33,مازندران,807,چمستان
33,مازندران,808,خرم آباد
33,مازندران,809,رویان
33,مازندران,810,سلمانشهر
33,مازندران,811,عباس آباد
33,مازندران,812,کلارآباد
33,مازندران,813,آلاشت
33,مازندران,814,ایزدشهر
33,مازندران,815,کلاردشت
33,مازندران,816,کیاسر
33,مازندران,817,مرزن آباد
33,مازندران,818,نشتارود
34,گلستان,403,گرگان
34,گلستان,404,آق قلا
34,گلستان,405,گنبدکاوس
34,گلستان,406,علی آباد
34,گلستان,407,مینودشت
34,گلستان,408,بندرترکمن
34,گلستان,409,کردکوی
34,گلستان,410,بندر گز
34,گلستان,411,کلاله
34,گلستان,412,آزادشهر
34,گلستان,658,رامیان
34,گلستان,879,گالیکش
34,گلستان,880,گمیش تپه
34,گلستان,881,مراوه تپه
34,گلستان,882,اینچه برون
34,گلستان,883,خان ببین
34,گلستان,884,دلند
34,گلستان,885,سیمین شهر
35,تهران,413,تهران
35,تهران,416,شهریار
35,تهران,417,ورامین
35,تهران,418,شهر قدس
35,تهران,419,فیروزکوه
35,تهران,420,ری
35,تهران,421,دماوند
35,تهران,422,اسلام شهر
35,تهران,659,رودهن
35,تهران,660,لواسان
35,تهران,661,بومهن
35,تهران,662,تجریش
35,تهران,663,فشم
35,تهران,664,کهریزک
35,تهران,665,پاکدشت
35,تهران,666,رباط کریم
35,تهران,667,اشتهارد
35,تهران,669,کن
35,تهران,670,ملارد
35,تهران,671,آسارا
35,تهران,672,چهاردانگه
35,تهران,673,گلستان
35,تهران,674,شریف آباد
35,تهران,675,قرچک
35,تهران,993,پیشوا
35,تهران,994,جاجرود
35,تهران,995,خرمدشت
35,تهران,996,باقر شهر
35,تهران,998,آبعلی
35,تهران,999,صفادشت
35,تهران,1000,حسن آباد
35,تهران,1001,شاهدشهر
35,تهران,1002,آبسرد
35,تهران,1008,اندیشه
35,تهران,1012,پرند
36,سمنان,424,سمنان
36,سمنان,425,شاهرود
36,سمنان,426,گرمسار
36,سمنان,427,ایوانکی
36,سمنان,676,دامغان
36,سمنان,677,بسطام
36,سمنان,920,سرخه
36,سمنان,921,مهدی شهر
36,سمنان,922,شهمیرزاد
36,سمنان,923,میامی
36,سمنان,924,ارادان
37,زنجان,428,زنجان
37,زنجان,429,ابهر
37,زنجان,430,خدابنده
37,زنجان,432,ماهنشان
37,زنجان,433,خرمدره
37,زنجان,434,ایجرود
37,زنجان,678,زرین آباد
37,زنجان,679,آب بر
37,زنجان,680,قیدار
37,زنجان,932,سهرورد
37,زنجان,980,صائین قلعه
37,زنجان,981,هیدج
37,زنجان,982,سلطانیه
37,زنجان,984,گرماب
37,زنجان,985,زرین رود
37,زنجان,986,سجاس
37,زنجان,987,گیلوان
37,زنجان,988,دندی
37,زنجان,990,حلب
38,قم,435,قم
38,قم,886,جعفریه
38,قم,887,دستجرد
38,قم,888,سلفچگان
38,قم,889,قنوات
38,قم,890,کهک
39,قزوین,436,قزوین
39,قزوین,437,تاکستان
39,قزوین,629,آبیک
39,قزوین,681,بوئین زهرا
39,قزوین,915,ضیاآباد
39,قزوین,916,اقبالیه
39,قزوین,917,الوند
39,قزوین,918,آبگرم
39,قزوین,919,خرمدشت
40,اصفهان,438,اصفهان
40,اصفهان,439,کاشان
40,اصفهان,440,مبارکه
40,اصفهان,441,شهرضا
40,اصفهان,442,خمینی شهر
40,اصفهان,443,شاهین شهر
40,اصفهان,444,نجف آباد
40,اصفهان,445,دولت آباد
40,اصفهان,446,زرین شهر
40,اصفهان,447,آران وبیدگل
40,اصفهان,448,باغ بهادران
40,اصفهان,521,برخوار و میمه
40,اصفهان,613,فریدن
40,اصفهان,614,فریدون شهر
40,اصفهان,615,فلاورجان
40,اصفهان,616,گلپایگان
40,اصفهان,617,سمیرم
40,اصفهان,618,نطنز
40,اصفهان,619,نائین
40,اصفهان,620,تیران
40,اصفهان,621,فولادشهر
40,اصفهان,623,خوانسار
40,اصفهان,626,اردستان
40,اصفهان,752,بهارستان
40,اصفهان,753,کوشک
40,اصفهان,765,سده لنجان
40,اصفهان,766,درچه پیاز
40,اصفهان,767,جوزدان
40,اصفهان,768,داران
40,اصفهان,769,کوهپایه
40,اصفهان,770,بادرود
40,اصفهان,771,چادگان
40,اصفهان,782,زیبا شهر
40,اصفهان,783,دهاقان
40,اصفهان,784,قهد ریجان
40,اصفهان,785,قمصر
40,اصفهان,786,جوشقان و کامو
40,اصفهان,787,زاینده رود
40,اصفهان,788,رضوان شهر
41,كرمان,449,کرمان
41,كرمان,450,راور
41,كرمان,451,شهربابک
41,كرمان,452,رفسنجان
41,كرمان,453,بافت
41,كرمان,454,سیرجان
41,كرمان,455,کهنوج
41,كرمان,456,زرند
41,كرمان,457,بم
41,كرمان,458,جیرفت
41,كرمان,459,بردسیر
41,كرمان,856,اختیارآباد
41,كرمان,857,انار
41,كرمان,858,بهرمان
41,كرمان,859,رودبار
41,كرمان,860,عنبرآباد
41,كرمان,861,قلعه گنج
41,كرمان,862,کوهبنان
41,كرمان,864,محمد آباد
41,كرمان,865,سرچشمه
41,كرمان,866,منوجان
41,كرمان,867,نجف شهر
41,كرمان,868,نودژ
41,كرمان,869,هجدک
41,كرمان,870,یزدانشهر
41,كرمان,1010,ارزوئیه
41,كرمان,1017,بردسیر
41,كرمان,1019,ماهان
41,كرمان,1020,ماهان
42,یزد,460,یزد
42,یزد,461,تفت
42,یزد,462,اردکان
42,یزد,463,ابرکوه
42,یزد,464,میبد
42,یزد,682,طبس
42,یزد,683,بافق
42,یزد,684,مهریز
42,یزد,686,هرات
42,یزد,754,خاتم
42,یزد,755,مروست
42,یزد,876,ندوشن
43,چهارمحال بختیاری,465,شهرکرد
43,چهارمحال بختیاری,466,فارسان
43,چهارمحال بختیاری,624,بروجن
43,چهارمحال بختیاری,697,چلگرد
43,چهارمحال بختیاری,698,اردل
43,چهارمحال بختیاری,699,لردگان
43,چهارمحال بختیاری,700,سامان
43,چهارمحال بختیاری,758,شلمزار
43,چهارمحال بختیاری,759,بلداجی
43,چهارمحال بختیاری,760,کیار
43,چهارمحال بختیاری,761,کوهرنگ
43,چهارمحال بختیاری,763,فرخ شهر
43,چهارمحال بختیاری,764,جونقان
44,آذربایجان شرقی,467,تبریز
44,آذربایجان شرقی,468,کندوان
44,آذربایجان شرقی,469,شرفخانه
44,آذربایجان شرقی,470,مراغه
44,آذربایجان شرقی,471,میانه
44,آذربایجان شرقی,472,شبستر
44,آذربایجان شرقی,473,مرند
44,آذربایجان شرقی,474,جلفا
44,آذربایجان شرقی,475,سراب
44,آذربایجان شرقی,476,هادیشهر
44,آذربایجان شرقی,477,بناب
44,آذربایجان شرقی,478,کلیبر
44,آذربایجان شرقی,479,تسوج
44,آذربایجان شرقی,480,اهر
44,آذربایجان شرقی,481,هریس
44,آذربایجان شرقی,482,عجب شیر
44,آذربایجان شرقی,483,هشترود
44,آذربایجان شرقی,484,ملکان
44,آذربایجان شرقی,701,بستان آباد
44,آذربایجان شرقی,702,ورزقان
44,آذربایجان شرقی,703,اسکو
44,آذربایجان شرقی,704,آذر شهر
44,آذربایجان شرقی,705,قره آغاج
44,آذربایجان شرقی,843,ترکمانچای
44,آذربایجان شرقی,844,نظرکهریزی
44,آذربایجان شرقی,845,ممقان
44,آذربایجان شرقی,846,هوراند
44,آذربایجان شرقی,847,خامنه
44,آذربایجان شرقی,848,صوفیان
45,آذربایجان غربی,485,ارومیه
45,آذربایجان غربی,486,نقده
45,آذربایجان غربی,487,ماکو
45,آذربایجان غربی,488,تکاب
45,آذربایجان غربی,489,خوی
45,آذربایجان غربی,490,مهاباد
45,آذربایجان غربی,491,سردشت
45,آذربایجان غربی,493,بوکان
45,آذربایجان غربی,494,میاندوآب
45,آذربایجان غربی,495,سلماس
45,آذربایجان غربی,630,شاهین دژ
45,آذربایجان غربی,706,پیرانشهر
45,آذربایجان غربی,707,سیه چشمه
45,آذربایجان غربی,708,اشنویه
45,آذربایجان غربی,779,شوط
45,آذربایجان غربی,780,قره ضیاءالدین
45,آذربایجان غربی,781,پلدشت
45,آذربایجان غربی,849,قوشچی
45,آذربایجان غربی,850,بازرگان
46,اردبیل,496,اردبیل
46,اردبیل,497,سرعین
46,اردبیل,498,بیله سوار
46,اردبیل,499,پارس آباد
46,اردبیل,500,خلخال
46,اردبیل,501,مشگین شهر
46,اردبیل,503,نمین
46,اردبیل,504,نیر
46,اردبیل,505,کوثر
46,اردبیل,709,کیوی
46,اردبیل,710,گرمی
46,اردبیل,930,رضی
46,اردبیل,931,اصلاندوز
47,خراسان رضوی,506,مشهد
47,خراسان رضوی,507,نیشابور
47,خراسان رضوی,508,سبزوار
47,خراسان رضوی,510,کاشمر
47,خراسان رضوی,511,گناباد
47,خراسان رضوی,514,طبس سینا
47,خراسان رضوی,515,تربت حیدریه
47,خراسان رضوی,516,خواف
47,خراسان رضوی,517,تربت جام
47,خراسان رضوی,518,تایباد
47,خراسان رضوی,519,قوچان
47,خراسان رضوی,522,سرخس
47,خراسان رضوی,712,بردسکن
47,خراسان رضوی,713,فریمان
47,خراسان رضوی,714,چناران
47,خراسان رضوی,716,درگز
47,خراسان رضوی,718,کلات
47,خراسان رضوی,719,طرقبه
47,خراسان رضوی,833,صالح آباد
47,خراسان رضوی,834,نصرآباد
47,خراسان رضوی,835,فیض آباد
47,خراسان رضوی,836,فیروزه
47,خراسان رضوی,837,شاندیز
47,خراسان رضوی,838,رشتخوار
47,خراسان رضوی,839,خلیل آباد
47,خراسان رضوی,840,بجستان
47,خراسان رضوی,841,ملک آباد
47,خراسان رضوی,842,رضویه
47,خراسان رضوی,1006,جوین
47,خراسان رضوی,1011,داورزن
48,سیستان و بلوچستان,523,زاهدان
48,سیستان و بلوچستان,524,چابهار
48,سیستان و بلوچستان,525,خاش
48,سیستان و بلوچستان,526,سراوان
48,سیستان و بلوچستان,527,زابل
48,سیستان و بلوچستان,528,سرباز
48,سیستان و بلوچستان,529,نیک شهر
48,سیستان و بلوچستان,530,ایرانشهر
48,سیستان و بلوچستان,632,میرجاوه
48,سیستان و بلوچستان,891,زهک
48,سیستان و بلوچستان,892,نصرت آباد
48,سیستان و بلوچستان,893,سوران
48,سیستان و بلوچستان,894,کنارک
49,خوزستان,520,رامشیر
49,خوزستان,531,اهواز
49,خوزستان,533,شوش
49,خوزستان,534,آبادان
49,خوزستان,535,خرمشهر
49,خوزستان,633,مسجد سلیمان
49,خوزستان,634,ایذه
49,خوزستان,635,شوشتر
49,خوزستان,636,اندیمشک
49,خوزستان,637,سوسنگرد
49,خوزستان,638,هویزه
49,خوزستان,639,دزفول
49,خوزستان,640,شادگان
49,خوزستان,641,ماهشهر
49,خوزستان,642,بندرامام خمینی 
49,خوزستان,643,امیدیه
49,خوزستان,644,بهبهان
49,خوزستان,645,رامهرمز
49,خوزستان,646,باغ ملک
49,خوزستان,647,هندیجان
49,خوزستان,648,لالی
49,خوزستان,778,هفتگل
49,خوزستان,801,گتوند
49,خوزستان,802,آغاجاری
49,خوزستان,803,قلعه خواجه
49,خوزستان,804,چمران
49,خوزستان,805,مینوشهر
49,خوزستان,806,بستان
50,لرستان,536,خرم آباد
50,لرستان,537,بروجرد
50,لرستان,538,دورود
50,لرستان,539,الیگودرز
50,لرستان,540,ازنا
50,لرستان,541,نور آباد
50,لرستان,542,کوهدشت
50,لرستان,543,الشتر
50,لرستان,544,پل دختر
50,لرستان,905,اشترینان
50,لرستان,906,چالان چولان
50,لرستان,907,چغلوندی
50,لرستان,908,زاغه
50,لرستان,909,سپیددشت
50,لرستان,910,سراب دوره
50,لرستان,912,فیروزآباد
50,لرستان,913,معمولان
51,فارس,545,شیراز
51,فارس,546,اقلید
51,فارس,547,داراب
51,فارس,548,فسا
51,فارس,549,مرودشت
51,فارس,550,خرم بید
51,فارس,551,آباده
51,فارس,552,کازرون
51,فارس,553,ممسنی
51,فارس,554,سپیدان
51,فارس,555,لار
51,فارس,556,فیروزآباد
51,فارس,557,جهرم
51,فارس,558,نی ریز
51,فارس,559,استهبان
51,فارس,687,لامرد
51,فارس,688,مهر
51,فارس,689,حاجی آباد
51,فارس,690,نورآباد
51,فارس,691,اردکان
51,فارس,692,صفاشهر
51,فارس,693,ارسنجان
51,فارس,694,قیروکارزین
51,فارس,696,فراشبند
51,فارس,749,لارستان
51,فارس,789,اوز
51,فارس,790,بوانات
51,فارس,792,گراش
51,فارس,793,خنج
51,فارس,795,داریان
51,فارس,796,سروستان
51,فارس,797,سعادت شهر
51,فارس,798,سیدان
51,فارس,1021,کوار
51,فارس,1022,خرامه
51,فارس,1023,مصیری-رستم
51,فارس,1024,بصیری-رستم
52,كهكیلویه وبویراحمد,560,یاسوج
52,كهكیلویه وبویراحمد,625,گچساران
52,كهكیلویه وبویراحمد,631,دنا
52,كهكیلویه وبویراحمد,720,دوگنبدان
52,كهكیلویه وبویراحمد,721,سی سخت
52,كهكیلویه وبویراحمد,722,دهدشت
52,كهكیلویه وبویراحمد,933,دیشموک
52,كهكیلویه وبویراحمد,934,قلعه رئیسی
52,كهكیلویه وبویراحمد,935,لیکک
52,كهكیلویه وبویراحمد,936,باشت
52,كهكیلویه وبویراحمد,937,چرام
53,هرمزگان,512,رودان
53,هرمزگان,561,بندرعباس
53,هرمزگان,562,قشم
53,هرمزگان,563,کیش
53,هرمزگان,723,بندرلنگه
53,هرمزگان,724,بستک
53,هرمزگان,725,حاجی آباد
53,هرمزگان,726,دهبارز
53,هرمزگان,727,گوهران
53,هرمزگان,728,میناب
53,هرمزگان,729,ابوموسی
53,هرمزگان,730,جاسک
53,هرمزگان,851,چارک
53,هرمزگان,852,بندرخمیر
53,هرمزگان,853,درگهان
53,هرمزگان,854,سیریک
53,هرمزگان,855,هرمز
53,هرمزگان,1007,پارسیان
54,بوشهر,564,بوشهر
54,بوشهر,565,تنگستان
54,بوشهر,566,دشتستان
54,بوشهر,567,بندردیر
54,بوشهر,568,بندردیلم
54,بوشهر,569,بندرکنگان
54,بوشهر,570,بندرگناوه
54,بوشهر,732,خورموج
54,بوشهر,733,اهرم
54,بوشهر,734,برازجان
54,بوشهر,735,جزیره خارک
54,بوشهر,871,دلوار
54,بوشهر,872,جم
54,بوشهر,873,کلمه
54,بوشهر,874,عسلویه
54,بوشهر,875,بندرریگ
54,بوشهر,949,سعدآباد
54,بوشهر,950,شبانکاره
54,بوشهر,951,تنگ آرم
54,بوشهر,952,دالکی
54,بوشهر,953,وحدتیه
54,بوشهر,954,آبپخش
54,بوشهر,958,نخل تقی
54,بوشهر,960,ریز
54,بوشهر,961,بنهگز
54,بوشهر,962,آباد
54,بوشهر,968,کاکی
54,بوشهر,969,شنبه
54,بوشهر,970,بادوله
54,بوشهر,974,چهارروستائی
54,بوشهر,975,شول
54,بوشهر,976,ابدان
54,بوشهر,977,بردخون
54,بوشهر,979,امام حسن
55,همدان,573,همدان
55,همدان,574,ملایر
55,همدان,575,تویسرکان
55,همدان,576,نهاوند
55,همدان,577,کبودرآهنگ
55,همدان,578,رزن
55,همدان,736,اسدآباد
55,همدان,737,بهار
55,همدان,902,جورقان
55,همدان,903,قهاوند
56,كرمانشاه,579,کرمانشاه
56,كرمانشاه,580,اسلام آباد غرب
56,كرمانشاه,581,سرپل ذهاب
56,كرمانشاه,582,کنگاور
56,كرمانشاه,583,سنقر
56,كرمانشاه,584,قصرشیرین
56,كرمانشاه,585,گیلانغرب
56,كرمانشاه,586,هرسین
56,كرمانشاه,587,صحنه
56,كرمانشاه,588,پاوه
56,كرمانشاه,589,جوانرود
56,كرمانشاه,773,بیستون
56,كرمانشاه,774,روانسر
56,كرمانشاه,775,دالاهو
56,كرمانشاه,899,سومار
56,كرمانشاه,900,کرند غرب
56,كرمانشاه,901,تازه آباد
57,ایلام,590,ایلام
57,ایلام,591,مهران
57,ایلام,592,دهلران
57,ایلام,593,آبدانان
57,ایلام,594,شیروان چرداول
57,ایلام,595,دره شهر
57,ایلام,596,ایوان
57,ایلام,738,سرابله
57,ایلام,1013,ارکواز
58,مركزی,597,اراک
58,مركزی,598,آشتیان
58,مركزی,599,تفرش
58,مركزی,600,خمین
58,مركزی,601,دلیجان
58,مركزی,602,ساوه
58,مركزی,604,محلات
58,مركزی,739,شازند
58,مركزی,895,کمیجان
58,مركزی,897,پرندک
58,مركزی,898,خنداب
59,كردستان,605,سنندج
59,كردستان,606,دیواندره
59,كردستان,607,بانه
59,كردستان,608,بیجار
59,كردستان,609,سقز
59,كردستان,610,کامیاران
59,كردستان,611,قروه
59,كردستان,612,مریوان
59,كردستان,925,صاحب
59,كردستان,926,دزج
59,كردستان,927,دلبران
59,كردستان,928,دهگلان
59,كردستان,929,سروآباد
60,خراسان جنوبی,509,فردوس
60,خراسان جنوبی,628,بشرویه
60,خراسان جنوبی,711,قائن
60,خراسان جنوبی,717,سرایان
60,خراسان جنوبی,741,بیرجند
60,خراسان جنوبی,742,نهبندان
60,خراسان جنوبی,743,سربیشه
60,خراسان جنوبی,938,اسفدن
60,خراسان جنوبی,939,حاجی آباد
60,خراسان جنوبی,940,اسلامیه
60,خراسان جنوبی,1015,طبس
61,خراسان شمالی,744,بجنورد
61,خراسان شمالی,745,اسفراین
61,خراسان شمالی,746,جاجرم
61,خراسان شمالی,747,شیروان
61,خراسان شمالی,748,آشخانه
61,خراسان شمالی,756,مانه
61,خراسان شمالی,757,سملقان
61,خراسان شمالی,941,گرمه
61,خراسان شمالی,942,قاضی
61,خراسان شمالی,943,پیش قلعه
61,خراسان شمالی,944,فاروج
62,البرز,415,کرج
62,البرز,423,نظرآباد
62,البرز,668,هشتگرد
62,البرز,945,ساوجبلاغ
62,البرز,946,مشکین دشت
62,البرز,947,محمد شهر
62,البرز,948,طالقان
62,البرز,1004,آسارا
62,البرز,1005,اشتهارد
62,البرز,1014,کمال شهر
